ハロプロアーティストのアルバムリリース数の推移をバーチャートレースで可視化
…
# アルバム一覧を読み込み
album_df <- readr::read_csv(
  file = paste0(dir_path, "album.csv"), 
  col_types = readr::cols(
    albumID = "i", 
    albumName = "c", 
    releaseDate = readr::col_date(format = "%Y/%m/%d"), 
    albumCategory = "c", 
    artistName = "c"
  )
) %>% 
  dplyr::arrange(releaseDate, albumID) # 昇順に並べ替え
album_df

## # A tibble: 200 x 5
##    albumID albumName                        releaseDate albumCategory artistName
##      <int> <chr>                            <date>      <chr>         <chr>     
##  1       1 Teenage Dream                    1998-03-25  オリジナルア~ 平家みちよ
##  2       2 ファーストタイム                 1998-07-08  オリジナルア~ モーニン~ 
##  3       3 モーニング刑事。                 1998-09-30  サウンドトラ~ モーニン~ 
##  4       4 中澤ゆうこ 第一章                1998-12-12  オリジナルア~ 中澤ゆうこ
##  5       5 TANPOPO 1                        1999-03-31  オリジナルア~ タンポポ  
##  6       6 セカンドモーニング               1999-07-28  オリジナルア~ モーニン~ 
##  7       7 Taiyo & Ciscomoon 1              1999-10-27  オリジナルア~ 太陽とシ~ 
##  8       8 3rd -LOVEパラダイス-             2000-03-29  オリジナルア~ モーニン~ 
##  9       9 プッチベスト ～黄青あか～        2000-04-26  ベストアルバ~ ハロー!プ~
## 10      10 映画「ピンチランナー」 オリジナ~ 2000-07-05  サウンドトラ~ モーニン~ 
## # ... with 190 more rows
…
      ), # 最後の行を現在の翌月にする
    n = lubridate::interval(start = release_date, end = next_release_date) %>% 
      lubridate::time_length(unit = "mon") # リリース数がない期間の月数を追加
  ) %>% 
  tidyr::uncount(n) %>% # 月数に応じて行を複製
  dplyr::group_by(release_date, artist_id) %>% # 行番号用にグループ化
  dplyr::mutate(idx = dplyr::row_number()) %>% # 行番号を割り当て
  dplyr::group_by(release_date, artist_id, idx) %>% # 1か月刻みの値の作成用にグループ化
  dplyr::mutate(date = seq(from = release_date, to = next_release_date, by = "mon")[idx]) %>% # 複製した行を1か月刻みの値に変更
  dplyr::ungroup() %>% # グループ化を解除
  dplyr::select(date, artist_id, artist_name, release_n) %>% # 利用する列を選択
  dplyr::arrange(date, artist_id) # 昇順に並べ替え
release_n_df

## # A tibble: 6,836 x 4
##    date       artist_id artist_name    release_n
##    <date>         <int> <chr>              <int>
##  1 1998-03-01         1 平家みちよ             1
##  2 1998-04-01         1 平家みちよ             1
##  3 1998-05-01         1 平家みちよ             1
##  4 1998-06-01         1 平家みちよ             1
##  5 1998-07-01         1 平家みちよ             1
##  6 1998-07-01         2 モーニング娘。         1
##  7 1998-08-01         1 平家みちよ             1
##  8 1998-08-01         2 モーニング娘。         1
##  9 1998-09-01         1 平家みちよ             1
## 10 1998-09-01         2 モーニング娘。         1
## # ... with 6,826 more rows
…
　dateからnext_dateまでの月数をinterval()とtime_lenght()で調べて、n列とします。

　行を複製して、1か月間隔となるように日付を再設定します。

df2 <- df1 %>% 
  tidyr::uncount(n) %>% # 月数に応じて行を複製
  dplyr::group_by(date) %>% # 行番号用にグループ化
  dplyr::mutate(idx = dplyr::row_number()) %>% # 行番号を割り当て
  dplyr::group_by(date, idx) %>% # 1か月刻みの値の作成用にグループ化
  dplyr::mutate(new_date = seq(from = date, to = next_date, by = "month")[idx]) %>% # 複製した行を1か月刻みの値に変更
  dplyr::ungroup() # グループ化を解除
df2

## # A tibble: 26 x 4
##    date       next_date    idx new_date  
##    <date>     <date>     <int> <date>    
##  1 2020-04-01 2020-07-01     1 2020-04-01
##  2 2020-04-01 2020-07-01     2 2020-05-01
##  3 2020-04-01 2020-07-01     3 2020-06-01
##  4 2020-07-01 2020-10-01     1 2020-07-01
##  5 2020-07-01 2020-10-01     2 2020-08-01
##  6 2020-07-01 2020-10-01     3 2020-09-01
##  7 2020-10-01 2021-01-01     1 2020-10-01
##  8 2020-10-01 2021-01-01     2 2020-11-01
##  9 2020-10-01 2021-01-01     3 2020-12-01
## 10 2021-01-01 2021-04-01     1 2021-01-01
## # ... with 16 more rows
…
release_0_df <- release_n_df %>% 
  dplyr::group_by(artist_id) %>% # 1枚目の抽出用にグループ化
  dplyr::filter(date == min(date)) %>% # 1枚目を抽出
  dplyr::ungroup() %>% # グループ化を解除
  dplyr::mutate(
    date = date %>% 
      lubridate::rollback() %>% 
      lubridate::floor_date(unit = "mon"), 
    artist_name = " ", 
    release_n = 0
  ) %>% # 1か月前のデータに書き換え
  dplyr::filter(date >= date_vals[1], date <= date_vals[2]) # 指定した期間内のデータを抽出
release_0_df

## # A tibble: 36 x 4
##    date       artist_id artist_name release_n
##    <date>         <int> <chr>           <dbl>
##  1 1998-02-01         1 " "                 0
##  2 1998-06-01         2 " "                 0
##  3 1998-11-01         3 " "                 0
##  4 1999-02-01         4 " "                 0
##  5 1999-09-01         5 " "                 0
##  6 2000-03-01         6 " "                 0
##  7 2001-03-01         7 " "                 0
##  8 2001-11-01         8 " "                 0
##  9 2001-12-01         9 " "                 0
## 10 2002-05-01        10 " "                 0
## # ... with 26 more rows
…
# リリース数で順位付け
rank_df <- dplyr::bind_rows(release_0_df, release_n_df) %>% # 発売前月のデータを追加:(小細工する場合)
  dplyr::arrange(date, artist_id) %>% # 昇順に並び替え
  dplyr::group_by(date) %>% # 月でグループ化
  dplyr::mutate(
    artist_id = factor(artist_id),  # 作図用に因子型に変換
    ranking = dplyr::row_number(-release_n) # ランキング列を追加
  ) %>% 
  dplyr::ungroup() %>% # グループ化を解除
  dplyr::filter(ranking <= max_rank) %>% # ランク上位グループを抽出
  dplyr::arrange(date, ranking) # 昇順に並べ替え
rank_df

## # A tibble: 6,872 x 5
##    date       artist_id artist_name      release_n ranking
##    <date>     <fct>     <chr>                <dbl>   <int>
##  1 1998-02-01 1         " "                      0       1
##  2 1998-03-01 1         "平家みちよ"             1       1
##  3 1998-04-01 1         "平家みちよ"             1       1
##  4 1998-05-01 1         "平家みちよ"             1       1
##  5 1998-06-01 1         "平家みちよ"             1       1
##  6 1998-06-01 2         " "                      0       2
##  7 1998-07-01 1         "平家みちよ"             1       1
##  8 1998-07-01 2         "モーニング娘。"         1       2
##  9 1998-08-01 1         "平家みちよ"             1       1
## 10 1998-08-01 2         "モーニング娘。"         1       2
## # ... with 6,862 more rows
…
