ハロプロアーティストのシングルリリース数の推移をバーチャートレースで可視化
…
# シングル一覧を読み込み
single_df <- readr::read_csv(
  file = paste0(dir_path, "single.csv"), 
  col_types = readr::cols(
    singleID = "i", 
    singleName = "c", 
    releaseDate = readr::col_date(format = "%Y/%m/%d"), 
    singleCategory = "c", 
    artistName = "c"
  )
) %>% 
  dplyr::arrange(releaseDate, singleID) # 昇順に並び替え
single_df

## # A tibble: 569 x 5
##    singleID singleName                releaseDate singleCategory      artistName
##       <int> <chr>                     <date>      <chr>               <chr>     
##  1        1 愛の種                    1997-11-03  インディーズシング~ モーニン~ 
##  2        2 GET                       1997-11-05  シングル            平家みちよ
##  3        3 モーニングコーヒー        1998-01-28  シングル            モーニン~ 
##  4        4 卒業 ～TOP OF THE WORLD～ 1998-02-15  シングル            平家みちよ
##  5        5 サマーナイトタウン        1998-05-27  シングル            モーニン~ 
##  6        6 ダイキライ                1998-07-01  シングル            平家みちよ
##  7        7 カラスの女房              1998-08-05  シングル            中澤裕子  
##  8        8 抱いてHOLD ON ME!         1998-09-09  シングル            モーニン~ 
##  9        9 だけど 愛しすぎて         1998-10-25  シングル            平家みちよ
## 10       10 ラストキッス              1998-11-18  シングル            タンポポ  
## # ... with 559 more rows
…
　例えば、アーティスト名が「Berryz工房×℃-ute」のデータを「Berryz工房」と「℃-ute」の2行に分割する場合は、pattern_vecを"Berryz工房×℃-ute"・replace_vecをc("Berryz工房", "℃-ute"")・n_vecを2と指定します。

　replace_vecの要素数とsum(n_vec)が一致します。

　連名作品のデータを取り出して分割します。

# 連名作品を分割
split_df <- single_df %>% 
  dplyr::filter(artistName %in% pattern_vec) %>% # 連名の作品を抽出
  tibble::add_column(n = n_vec) %>% # 複製数を追加
  tidyr::uncount(n) %>% # 作品を複製
  dplyr::mutate(artistName = replace_vec) # 個々のアーティスト名を再設定
split_df

## # A tibble: 30 x 5
##    singleID singleName                     releaseDate singleCategory artistName
##       <int> <chr>                          <date>      <chr>          <chr>     
##  1      134 壊れない愛がほしいの/GET UP!~  2003-07-09  シングル       7AIR      
##  2      134 壊れない愛がほしいの/GET UP!~  2003-07-09  シングル       SALT5     
##  3      134 壊れない愛がほしいの/GET UP!~  2003-07-09  シングル       11WATER   
##  4      201 オンナ、哀しい、オトナ/印象派~ 2005-06-22  シングル       セクシー~ 
##  5      201 オンナ、哀しい、オトナ/印象派~ 2005-06-22  シングル       エレジーズ
##  6      201 オンナ、哀しい、オトナ/印象派~ 2005-06-22  シングル       プリプリ~ 
##  7      338 PARTY TIME/わたしのたまご      2009-11-18  シングル       ガーディ~ 
##  8      338 PARTY TIME/わたしのたまご      2009-11-18  シングル       しゅごキ~ 
##  9      343 Going On!                      2010-01-20  シングル       ガーディ~ 
## 10      343 Going On!                      2010-01-20  シングル       しゅごキ~ 
## # ... with 20 more rows
…
      ), # 最後の行を現在の翌月にする
    n = lubridate::interval(start = release_date, end = next_release_date) %>% 
      lubridate::time_length(unit = "mon") # リリース数がない期間の月数を追加
  ) %>% 
  tidyr::uncount(n) %>% # 月数に応じて行を複製
  dplyr::group_by(release_date, artist_id) %>% # 行番号用にグループ化
  dplyr::mutate(idx = dplyr::row_number()) %>% # 行番号を割り当て
  dplyr::group_by(release_date, artist_id, idx) %>% # 1か月刻みの値の作成用にグループ化
  dplyr::mutate(date = seq(from = release_date, to = next_release_date, by = "mon")[idx]) %>% # 複製した行を1か月刻みの値に変更
  dplyr::ungroup() %>% # グループ化を解除
  dplyr::select(date, artist_id, artist_name, release_n) %>% # 利用する列を選択
  dplyr::arrange(date, artist_id) # 昇順に並べ替え
release_n_df

## # A tibble: 16,205 x 4
##    date       artist_id artist_name    release_n
##    <date>         <int> <chr>              <int>
##  1 1997-11-01         1 モーニング娘。         1
##  2 1997-11-01         2 平家みちよ             1
##  3 1997-12-01         1 モーニング娘。         1
##  4 1997-12-01         2 平家みちよ             1
##  5 1998-01-01         1 モーニング娘。         2
##  6 1998-01-01         2 平家みちよ             1
##  7 1998-02-01         1 モーニング娘。         2
##  8 1998-02-01         2 平家みちよ             2
##  9 1998-03-01         1 モーニング娘。         2
## 10 1998-03-01         2 平家みちよ             2
## # ... with 16,195 more rows
…
　dateからnext_dateまでの月数をinterval()とtime_lenght()で調べて、n列とします。

　行を複製して、1か月間隔となるように日付を再設定します。

df2 <- df1 %>% 
  tidyr::uncount(n) %>% # 月数に応じて行を複製
  dplyr::group_by(date) %>% # 行番号用にグループ化
  dplyr::mutate(idx = dplyr::row_number()) %>% # 行番号を割り当て
  dplyr::group_by(date, idx) %>% # 1か月刻みの値の作成用にグループ化
  dplyr::mutate(new_date = seq(from = date, to = next_date, by = "month")[idx]) %>% # 複製した行を1か月刻みの値に変更
  dplyr::ungroup() # グループ化を解除
df2

## # A tibble: 26 x 4
##    date       next_date    idx new_date  
##    <date>     <date>     <int> <date>    
##  1 2020-04-01 2020-07-01     1 2020-04-01
##  2 2020-04-01 2020-07-01     2 2020-05-01
##  3 2020-04-01 2020-07-01     3 2020-06-01
##  4 2020-07-01 2020-10-01     1 2020-07-01
##  5 2020-07-01 2020-10-01     2 2020-08-01
##  6 2020-07-01 2020-10-01     3 2020-09-01
##  7 2020-10-01 2021-01-01     1 2020-10-01
##  8 2020-10-01 2021-01-01     2 2020-11-01
##  9 2020-10-01 2021-01-01     3 2020-12-01
## 10 2021-01-01 2021-04-01     1 2021-01-01
## # ... with 16 more rows
…
release_0_df <- release_n_df %>% 
  dplyr::group_by(artist_id) %>% # 1枚目の抽出用にグループ化
  dplyr::filter(date == min(date)) %>% # 1枚目を抽出
  dplyr::ungroup() %>% # グループ化を解除
  dplyr::mutate(
    date = date %>% 
      lubridate::rollback() %>% 
      lubridate::floor_date(unit = "mon"), 
    artist_name = " ", 
    release_n = 0
  ) %>% # 1か月前のデータに書き換え
  dplyr::filter(date >= date_vals[1], date <= date_vals[2]) # 指定した期間内のデータを抽出
release_0_df

## # A tibble: 85 x 4
##    date       artist_id artist_name release_n
##    <date>         <int> <chr>           <dbl>
##  1 1997-10-01         1 " "                 0
##  2 1997-10-01         2 " "                 0
##  3 1998-07-01         3 " "                 0
##  4 1998-10-01         4 " "                 0
##  5 1999-03-01         5 " "                 0
##  6 1999-06-01         6 " "                 0
##  7 1999-06-01         7 " "                 0
##  8 1999-07-01         8 " "                 0
##  9 1999-10-01         9 " "                 0
## 10 2000-01-01        10 " "                 0
## # ... with 75 more rows
…
# リリース数で順位付け
rank_df <- dplyr::bind_rows(release_0_df, release_n_df) %>% # 発売前月のデータを追加:(小細工する場合)
  dplyr::arrange(date, artist_id) %>% # 昇順に並び替え
  dplyr::group_by(date) %>% # 月でグループ化
  dplyr::mutate(
    artist_id = factor(artist_id),  # 作図用に因子型に変換
    ranking = dplyr::row_number(-release_n) # ランキング列を追加
  ) %>% 
  dplyr::ungroup() %>% # グループ化を解除
  dplyr::filter(ranking <= max_rank) %>% # ランク上位グループを抽出
  dplyr::arrange(date, ranking) # 昇順に並べ替え
rank_df

## # A tibble: 11,957 x 5
##    date       artist_id artist_name      release_n ranking
##    <date>     <fct>     <chr>                <dbl>   <int>
##  1 1997-10-01 1         " "                      0       1
##  2 1997-10-01 2         " "                      0       2
##  3 1997-11-01 1         "モーニング娘。"         1       1
##  4 1997-11-01 2         "平家みちよ"             1       2
##  5 1997-12-01 1         "モーニング娘。"         1       1
##  6 1997-12-01 2         "平家みちよ"             1       2
##  7 1998-01-01 1         "モーニング娘。"         2       1
##  8 1998-01-01 2         "平家みちよ"             1       2
##  9 1998-02-01 1         "モーニング娘。"         2       1
## 10 1998-02-01 2         "平家みちよ"             2       2
## # ... with 11,947 more rows
…
