ハロプログループの平均年齢の推移をバーチャートレースで可視化
…
  file = paste0(dir_path, "member.csv"), 
  col_types = readr::cols(
    memberID = "i", 
    memberName = "c", 
    HPjoinDate = readr::col_date(format = "%Y/%m/%d"), 
    debutDate = readr::col_date(format = "%Y/%m/%d"), 
    HPgradDate = readr::col_date(format = "%Y/%m/%d"), 
    memberKana = "c", 
    birthDate = readr::col_date(format = "%Y/%m/%d")
  )
) |> 
  dplyr::arrange(memberID) # 昇順に並べ替え
member_df

## # A tibble: 273 × 7
##    memberID memberName HPjoinDate debutDate  HPgradDate memberKana    birthDate 
##       <int> <chr>      <date>     <date>     <date>     <chr>         <date>    
##  1        1 中澤裕子   1997-09-14 1998-01-28 2009-03-31 なかざわゆう… 1973-06-19
##  2        2 石黒彩     1997-09-14 1998-01-28 2000-01-07 いしぐろあや  1978-05-12
##  3        3 飯田圭織   1997-09-14 1998-01-28 2009-03-31 いいだかおり  1981-08-08
##  4        4 安倍なつみ 1997-09-14 1998-01-28 2009-03-31 あべなつみ    1981-08-10
##  5        5 福田明日香 1997-09-14 1998-01-28 1999-04-18 ふくだあすか  1984-12-17
##  6        6 平家みちよ 1997-11-05 1997-11-05 2002-11-07 へいけみちよ  1979-04-06
##  7        7 保田圭     1998-05-03 1998-05-03 2009-03-31 やすだけい    1980-12-06
##  8        8 矢口真里   1998-05-03 1998-05-03 2005-04-14 やぐちまり    1983-01-20
##  9        9 市井紗耶香 1998-05-03 1998-05-03 2000-05-21 いちいさやか  1983-12-31
## 10       10 信田美帆   1999-02-21 1999-04-21 2000-10-09 しのだみほ    1972-05-18
## # … with 263 more rows
…
# グループ一覧を読み込み
group_df <- readr::read_csv(
  file = paste0(dir_path, "group.csv"), 
  col_types = readr::cols(
    groupID = "i", 
    groupName = "c", 
    formDate = readr::col_date(format = "%Y/%m/%d"), 
    dissolveDate = readr::col_date(format = "%Y/%m/%d"), 
    isUnit = "l"
  )
) |> 
  dplyr::arrange(groupID, formDate) # 昇順に並べ替え
group_df

## # A tibble: 60 × 5
##    groupID groupName          formDate   dissolveDate isUnit
##      <int> <chr>              <date>     <date>       <lgl> 
##  1       1 モーニング娘。     1997-09-14 2013-12-31   FALSE 
##  2       1 モーニング娘。 '14 2014-01-01 2014-12-31   FALSE 
##  3       1 モーニング娘。 '15 2015-01-01 2015-12-31   FALSE 
##  4       1 モーニング娘。 '16 2016-01-01 2016-12-31   FALSE 
##  5       1 モーニング娘。 '17 2017-01-01 2017-12-31   FALSE 
##  6       1 モーニング娘。 '18 2018-01-01 2018-12-31   FALSE 
##  7       1 モーニング娘。 '19 2019-01-01 2019-12-31   FALSE 
##  8       1 モーニング娘。 '20 2020-01-01 2020-12-31   FALSE 
##  9       1 モーニング娘。 '21 2021-01-01 2021-12-31   FALSE 
## 10       1 モーニング娘。 '22 2022-01-01 NA           FALSE 
## # … with 50 more rows
…
# 加入・卒業日一覧を読み込み
join_df <- readr::read_csv(
  file = paste0(dir_path, "join.csv"), 
  col_types = readr::cols(
    memberID = "i", 
    groupID = "i", 
    joinDate = readr::col_date(format = "%Y/%m/%d"), 
    gradDate = readr::col_date(format = "%Y/%m/%d")
  )
) |> 
  dplyr::arrange(joinDate, memberID, groupID) # 昇順に並べ替え
join_df

## # A tibble: 514 × 4
##    memberID groupID joinDate   gradDate  
##       <int>   <int> <date>     <date>    
##  1        1       1 1997-09-14 2001-04-15
##  2        2       1 1997-09-14 2000-01-07
##  3        3       1 1997-09-14 2005-01-30
##  4        4       1 1997-09-14 2004-01-25
##  5        5       1 1997-09-14 1999-04-18
##  6        7       1 1998-05-03 2003-05-05
##  7        8       1 1998-05-03 2005-04-14
##  8        9       1 1998-05-03 2000-05-21
##  9        2       2 1998-10-18 2000-01-07
## 10        3       2 1998-10-18 2002-09-23
## # … with 504 more rows
…
      lubridate::time_length(unit = "mon") + 1
  ) |> # 月単位に切り捨てて月数をカウント
  tidyr::uncount(n) |> # 月数に応じて行を複製
  dplyr::group_by(groupName) |> # 行番号用にグループ化
  dplyr::mutate(idx = dplyr::row_number()) |> # 行番号を割り当て
  dplyr::group_by(groupName, idx) |> # 1か月刻みの値の作成用にグループ化
  dplyr::mutate(date = seq(from = formDate, to = dissolveDate, by = "mon")[idx]) |> # 複製した行を1か月刻みの値に変更
  dplyr::group_by(date, groupID) |> # 重複の除去用にグループ化
  dplyr::slice_max(formDate) |> # 重複する場合は新しい方を抽出
  dplyr::ungroup() |> # グループ化を解除
  dplyr::select(date, groupID, groupName, formDate, dissolveDate) |> # 利用する列を選択
  dplyr::arrange(date, groupID) # 昇順に並べ替え
group_name_df

## # A tibble: 3,251 × 5
##    date       groupID groupName      formDate   dissolveDate
##    <date>       <int> <chr>          <date>     <date>      
##  1 1997-09-01       1 モーニング娘。 1997-09-01 2013-12-01  
##  2 1997-10-01       1 モーニング娘。 1997-09-01 2013-12-01  
##  3 1997-11-01       1 モーニング娘。 1997-09-01 2013-12-01  
##  4 1997-12-01       1 モーニング娘。 1997-09-01 2013-12-01  
##  5 1998-01-01       1 モーニング娘。 1997-09-01 2013-12-01  
##  6 1998-02-01       1 モーニング娘。 1997-09-01 2013-12-01  
##  7 1998-03-01       1 モーニング娘。 1997-09-01 2013-12-01  
##  8 1998-04-01       1 モーニング娘。 1997-09-01 2013-12-01  
##  9 1998-05-01       1 モーニング娘。 1997-09-01 2013-12-01  
## 10 1998-06-01       1 モーニング娘。 1997-09-01 2013-12-01  
## # … with 3,241 more rows
…
    values_to = "date"
  ) |> # 結成前月・解散月を同じ列に変形
  dplyr::select(date, groupID) |> # 利用する列を選択
  dplyr::filter(!is.na(date)) |> # 現在活動中のグループの解散月を除去
  tibble::add_column(
    groupName = " ", 
    age_total = 0, 
    member_n = 0, 
    age_mean = 0
  ) |> # メンバー数(0人)を追加
  dplyr::filter(date > min(date_vec), date < max(date_vec)) |> # 指定した期間内のデータを抽出
  dplyr::arrange(date, groupID) # 昇順に並び替え
member_0_df

## # A tibble: 76 × 6
##    date       groupID groupName age_total member_n age_mean
##    <date>       <int> <chr>         <dbl>    <dbl>    <dbl>
##  1 1998-09-01       2 " "               0        0        0
##  2 1999-01-01       3 " "               0        0        0
##  3 1999-02-01       4 " "               0        0        0
##  4 1999-03-01       5 " "               0        0        0
##  5 1999-07-01       7 " "               0        0        0
##  6 1999-09-01       6 " "               0        0        0
##  7 2000-05-01       8 " "               0        0        0
##  8 2000-06-01       9 " "               0        0        0
##  9 2000-10-01       3 " "               0        0        0
## 10 2001-12-01       9 " "               0        0        0
## # … with 66 more rows
…
  ) |> # グループの合計年齢と(計算に使った)メンバー数を計算
  dplyr::mutate(age_mean = age_total / member_n) |> # グループの平均年齢を計算
  dplyr::bind_rows(member_0_df) |> # 結成前月・解散月を追加
  dplyr::arrange(date, age_mean, groupID) |> # 順位付け用に並べ替え
  dplyr::group_by(date) |> # 順位付け用にグループ化
  dplyr::mutate(
    groupID = factor(groupID), 
    ranking = dplyr::row_number(-age_mean), 
  ) |> # 順位を追加
  dplyr::ungroup() |> # グループ化を解除
  dplyr::select(date, groupID, groupName, age_mean, ranking) |> # 利用する列を選択
  dplyr::arrange(date, ranking) # 昇順に並べ替え
rank_df

## # A tibble: 3,219 × 5
##    date       groupID groupName      age_mean ranking
##    <date>     <fct>   <chr>             <dbl>   <int>
##  1 1997-09-01 1       モーニング娘。     17.4       1
##  2 1997-10-01 1       モーニング娘。     17.4       1
##  3 1997-11-01 1       モーニング娘。     17.4       1
##  4 1997-12-01 1       モーニング娘。     17.4       1
##  5 1998-01-01 1       モーニング娘。     17.6       1
##  6 1998-02-01 1       モーニング娘。     17.6       1
##  7 1998-03-01 1       モーニング娘。     17.6       1
##  8 1998-04-01 1       モーニング娘。     17.6       1
##  9 1998-05-01 1       モーニング娘。     16.8       1
## 10 1998-06-01 1       モーニング娘。     16.9       1
## # … with 3,209 more rows
…
　各処理を細かく見ます。

・コード(クリックで展開)

　月・グループID・メンバーIDの全ての組み合わせを持つデータフレームを作成します。

# 受け皿を作成
df1 <- tidyr::expand_grid(
  date = date_vec, 
  groupID = 1:group_size, 
  memberID = 1:member_size
) # 全ての組み合わせを作成
df1

## # A tibble: 3,540,240 × 3
##    date       groupID memberID
##    <date>       <int>    <int>
##  1 1997-09-01       1        1
##  2 1997-09-01       1        2
##  3 1997-09-01       1        3
##  4 1997-09-01       1        4
##  5 1997-09-01       1        5
##  6 1997-09-01       1        6
##  7 1997-09-01       1        7
##  8 1997-09-01       1        8
##  9 1997-09-01       1        9
## 10 1997-09-01       1       10
## # … with 3,540,230 more rows

　月date_vec・グループID1:group_size・メンバーID1:member_sizeのそれぞれの値について、全ての組み合わせをexpand_grid()で作成します。

　これは、次のようなデータフレームが得られます。

tidyr::expand_grid(
  x = 1:3, 
  y = 1:3, 
  z = 1:3
)

## # A tibble: 27 × 3
##        x     y     z
##    <int> <int> <int>
##  1     1     1     1
##  2     1     1     2
##  3     1     1     3
##  4     1     2     1
##  5     1     2     2
##  6     1     2     3
##  7     1     3     1
##  8     1     3     2
##  9     1     3     3
## 10     2     1     1
## # … with 17 more rows

　一時的に、行数が「月数×グループ数×メンバー数」のデータフレームが作成されます(かなり大きくなるのでご注意ください。purrrを使えるともっと上手くやれるんだと思う)。

　各グループの各月に対応した名前・結成日・解散日の情報を結合します。

# グループの情報を結合
df2 <- df1 %>% 
  dplyr::left_join(group_name_df, by = c("date", "groupID")) |> # グループ情報を結合
  dplyr::filter(date >= formDate, date <= dissolveDate) # 活動中のグループを抽出
df2

## # A tibble: 877,770 × 6
##    date       groupID memberID groupName      formDate   dissolveDate
##    <date>       <int>    <int> <chr>          <date>     <date>      
##  1 1997-09-01       1        1 モーニング娘。 1997-09-01 2013-12-01  
##  2 1997-09-01       1        2 モーニング娘。 1997-09-01 2013-12-01  
##  3 1997-09-01       1        3 モーニング娘。 1997-09-01 2013-12-01  
##  4 1997-09-01       1        4 モーニング娘。 1997-09-01 2013-12-01  
##  5 1997-09-01       1        5 モーニング娘。 1997-09-01 2013-12-01  
##  6 1997-09-01       1        6 モーニング娘。 1997-09-01 2013-12-01  
##  7 1997-09-01       1        7 モーニング娘。 1997-09-01 2013-12-01  
##  8 1997-09-01       1        8 モーニング娘。 1997-09-01 2013-12-01  
##  9 1997-09-01       1        9 モーニング娘。 1997-09-01 2013-12-01  
## 10 1997-09-01       1       10 モーニング娘。 1997-09-01 2013-12-01  
## # … with 877,760 more rows
…
# 加入・卒業の情報を結合
df3 <- df2 %>% 
  dplyr::select(!c(formDate, dissolveDate)) |> # 不要な列を削除
  dplyr::left_join(
    join_df |> 
      dplyr::mutate(
        joinDate = lubridate::floor_date(joinDate, unit = "mon"), 
        gradDate = lubridate::floor_date(gradDate, unit = "mon")
      ), # 月単位に切り捨て
    by = c("groupID", "memberID")
  ) |> # 所属メンバー情報を結合
  dplyr::filter(date >= joinDate, date < gradDate | is.na(gradDate)) # 活動中のメンバーを抽出
df3

## # A tibble: 21,273 × 6
##    date       groupID memberID groupName      joinDate   gradDate  
##    <date>       <int>    <int> <chr>          <date>     <date>    
##  1 1997-09-01       1        1 モーニング娘。 1997-09-01 2001-04-01
##  2 1997-09-01       1        2 モーニング娘。 1997-09-01 2000-01-01
##  3 1997-09-01       1        3 モーニング娘。 1997-09-01 2005-01-01
##  4 1997-09-01       1        4 モーニング娘。 1997-09-01 2004-01-01
##  5 1997-09-01       1        5 モーニング娘。 1997-09-01 1999-04-01
##  6 1997-10-01       1        1 モーニング娘。 1997-09-01 2001-04-01
##  7 1997-10-01       1        2 モーニング娘。 1997-09-01 2000-01-01
##  8 1997-10-01       1        3 モーニング娘。 1997-09-01 2005-01-01
##  9 1997-10-01       1        4 モーニング娘。 1997-09-01 2004-01-01
## 10 1997-10-01       1        5 モーニング娘。 1997-09-01 1999-04-01
## # … with 21,263 more rows
…
  dplyr::select(!c(joinDate, gradDate)) |> # 不要な列を削除
  dplyr::left_join(
    member_df |> 
      dplyr::distinct(memberID, .keep_all = TRUE), # 重複を除去
    by = "memberID"
  ) |> # メンバー情報を結合
  dplyr::select(date, groupID, groupName, memberID, memberName, birthDate) |> # 利用する列を選択
  dplyr::mutate(
    age = lubridate::interval(start = birthDate, end = date) |> 
      lubridate::time_length(unit = "year") |> 
      floor()
  ) # メンバーの月齢を計算
df4

## # A tibble: 21,273 × 7
##    date       groupID groupName      memberID memberName birthDate    age
##    <date>       <int> <chr>             <int> <chr>      <date>     <dbl>
##  1 1997-09-01       1 モーニング娘。        1 中澤裕子   1973-06-19    24
##  2 1997-09-01       1 モーニング娘。        2 石黒彩     1978-05-12    19
##  3 1997-09-01       1 モーニング娘。        3 飯田圭織   1981-08-08    16
##  4 1997-09-01       1 モーニング娘。        4 安倍なつみ 1981-08-10    16
##  5 1997-09-01       1 モーニング娘。        5 福田明日香 1984-12-17    12
##  6 1997-10-01       1 モーニング娘。        1 中澤裕子   1973-06-19    24
##  7 1997-10-01       1 モーニング娘。        2 石黒彩     1978-05-12    19
##  8 1997-10-01       1 モーニング娘。        3 飯田圭織   1981-08-08    16
##  9 1997-10-01       1 モーニング娘。        4 安倍なつみ 1981-08-10    16
## 10 1997-10-01       1 モーニング娘。        5 福田明日香 1984-12-17    12
## # … with 21,263 more rows
…
　各グループの平均年齢を計算します。

# 各グループの平均年齢を計算
df5 <- df4 %>% 
  dplyr::group_by(date, groupID, groupName) |> # 平均年齢の計算用にグループ化
  dplyr::summarise(
    age_total = sum(age, na.rm = TRUE), 
    member_n = sum(!is.na(birthDate)), 
    .groups = "drop"
  ) |> # グループの合計年齢と(計算に使った)メンバー数を計算
  dplyr::mutate(age_mean = age_total / member_n) # グループの平均月齢を計算
df5

## # A tibble: 3,143 × 6
##    date       groupID groupName      age_total member_n age_mean
##    <date>       <int> <chr>              <dbl>    <int>    <dbl>
##  1 1997-09-01       1 モーニング娘。        87        5     17.4
##  2 1997-10-01       1 モーニング娘。        87        5     17.4
##  3 1997-11-01       1 モーニング娘。        87        5     17.4
##  4 1997-12-01       1 モーニング娘。        87        5     17.4
##  5 1998-01-01       1 モーニング娘。        88        5     17.6
##  6 1998-02-01       1 モーニング娘。        88        5     17.6
##  7 1998-03-01       1 モーニング娘。        88        5     17.6
##  8 1998-04-01       1 モーニング娘。        88        5     17.6
##  9 1998-05-01       1 モーニング娘。       134        8     16.8
## 10 1998-06-01       1 モーニング娘。       135        8     16.9
## # … with 3,133 more rows
…
# 作図用に編集
df6 <- df5 %>% 
  dplyr::bind_rows(member_0_df) |> # 結成前月・解散月を追加
  dplyr::arrange(date, age_mean, groupID) |> # 順位付け用に並べ替え
  dplyr::group_by(date) |> # 順位付け用にグループ化
  dplyr::mutate(
    groupID = factor(groupID), 
    ranking = dplyr::row_number(-age_mean), 
  ) |> # 順位を追加
  dplyr::ungroup() |> # グループ化を解除
  #dplyr::select(date, groupID, groupName, age_mean, ranking) |> # 利用する列を選択
  dplyr::arrange(date, ranking) # 昇順に並べ替え
df6

## # A tibble: 3,219 × 7
##    date       groupID groupName      age_total member_n age_mean ranking
##    <date>     <fct>   <chr>              <dbl>    <dbl>    <dbl>   <int>
##  1 1997-09-01 1       モーニング娘。        87        5     17.4       1
##  2 1997-10-01 1       モーニング娘。        87        5     17.4       1
##  3 1997-11-01 1       モーニング娘。        87        5     17.4       1
##  4 1997-12-01 1       モーニング娘。        87        5     17.4       1
##  5 1998-01-01 1       モーニング娘。        88        5     17.6       1
##  6 1998-02-01 1       モーニング娘。        88        5     17.6       1
##  7 1998-03-01 1       モーニング娘。        88        5     17.6       1
##  8 1998-04-01 1       モーニング娘。        88        5     17.6       1
##  9 1998-05-01 1       モーニング娘。       134        8     16.8       1
## 10 1998-06-01 1       モーニング娘。       135        8     16.9       1
## # … with 3,209 more rows
…
